…
  df_info <- rbind(df_info, df)
}

# 이렇게 생성된 데이터는 df_info라고 정함 
# N컬럼(기업순위)가 비어있는 데이터는 제거 
# 토론실 컬럼도 제거
df_info <- df_info %>% 
  filter(!is.na(df_info$N)) %>% 
  select(-토론실)

df_info 

## # A tibble: 250 x 12
##        N 종목명 현재가 전일비 등락률 액면가 시가총액 상장주식수 외국인비율
##    <int> <chr>  <chr>  <chr>  <chr>  <chr>  <chr>    <chr>           <dbl>
##  1     1 삼성전자… 82,800 1,000  +1.22% 100    4,942,9… 5,969,783        54.7
##  2     2 SK하이닉… 140,5… 4,000  +2.93% 5,000  1,022,8… 728,002          50.0
##  3     3 NAVER  385,5… 2,500  +0.65% 100    633,235  164,263          57.2
##  4     4 LG화학 891,0… 75,000 -7.76% 5,000  628,978  70,592           45.5
##  5     5 삼성전자우… 73,800 700    +0.96% 100    607,290  822,887          78.3
##  6     6 현대차 234,0… 2,000  +0.86% 5,000  499,984  213,668          30.8
##  7     7 삼성바이오… 733,0… 2,000  -0.27% 2,500  484,989  66,165           10.3
##  8     8 삼성SDI… 680,0… 6,000  -0.87% 5,000  467,599  68,765           43.5
##  9     9 카카오 479,0… 0      0.00%  500    424,895  88,705           33.2
## 10    10 셀트리온… 296,5… 7,500  +2.60% 1,000  400,357  135,028          20.9
## # … with 240 more rows, and 3 more variables: 거래량 <chr>, PER <chr>,
## #   ROE <chr>
…
  ticker_df <- rbind(ticker_df, ticker_df_1)
}

ticker_df <- ticker_df %>% 
  as_tibble() 

ticker_df$종목코드 <- ticker_df$종목코드 %>% as.character()
ticker_df$종목명 <- ticker_df$종목명 %>% as.character()

ticker_df <- ticker_df %>% 
  filter(nchar(종목명) != 0)

ticker_df

## # A tibble: 250 x 2
##    종목명           종목코드
##    <chr>            <chr>   
##  1 삼성전자         005930  
##  2 SK하이닉스       000660  
##  3 NAVER            035420  
##  4 LG화학           051910  
##  5 삼성전자우       005935  
##  6 현대차           005380  
##  7 삼성바이오로직스 207940  
##  8 삼성SDI          006400  
##  9 카카오           035720  
## 10 셀트리온         068270  
## # … with 240 more rows

시가총액과, 종목코드 join

이렇개 생성된 시가총액 데이터와, 종목코드 데이터를 join시켜주자 left_join()함수를 사용했으며 이때 사용한 키값은 종목명으로 해두었다.

df_ticker_info <- df_info %>% 
  left_join(ticker_df) 

df_ticker_info

## # A tibble: 250 x 13
##        N 종목명 현재가 전일비 등락률 액면가 시가총액 상장주식수 외국인비율
##  * <int> <chr>  <chr>  <chr>  <chr>  <chr>  <chr>    <chr>           <dbl>
##  1     1 삼성전자… 82,800 1,000  +1.22% 100    4,942,9… 5,969,783        54.7
##  2     2 SK하이닉… 140,5… 4,000  +2.93% 5,000  1,022,8… 728,002          50.0
##  3     3 NAVER  385,5… 2,500  +0.65% 100    633,235  164,263          57.2
##  4     4 LG화학 891,0… 75,000 -7.76% 5,000  628,978  70,592           45.5
##  5     5 삼성전자우… 73,800 700    +0.96% 100    607,290  822,887          78.3
##  6     6 현대차 234,0… 2,000  +0.86% 5,000  499,984  213,668          30.8
##  7     7 삼성바이오… 733,0… 2,000  -0.27% 2,500  484,989  66,165           10.3
##  8     8 삼성SDI… 680,0… 6,000  -0.87% 5,000  467,599  68,765           43.5
##  9     9 카카오 479,0… 0      0.00%  500    424,895  88,705           33.2
## 10    10 셀트리온… 296,5… 7,500  +2.60% 1,000  400,357  135,028          20.9
## # … with 240 more rows, and 4 more variables: 거래량 <chr>, PER <chr>,
## #   ROE <chr>, 종목코드 <chr>
…
