…
  df_info <- rbind(df_info, df)
}

# 이렇게 생성된 데이터는 df_info라고 정함 
# N컬럼(기업순위)가 비어있는 데이터는 제거 
# 토론실 컬럼도 제거
df_info <- df_info %>% 
  filter(!is.na(df_info$N)) %>% 
  select(-토론실)

df_info 

## # A tibble: 250 x 12
##        N 종목명 현재가 전일비 등락률 액면가 시가총액 상장주식수 외국인비율
##    <int> <chr>  <chr>  <chr>  <chr>  <chr>  <chr>    <chr>           <dbl>
##  1     1 삼성전자… 82,500 2,800  -3.28% 100    4,925,0… 5,969,783        54.9
##  2     2 SK하이닉… 141,5… 7,000  -4.71% 5,000  1,030,1… 728,002          50.7
##  3     3 NAVER  375,0… 8,000  -2.09% 100    615,988  164,263          57.3
##  4     4 삼성전자우… 72,800 1,300  -1.75% 100    599,062  822,887          78.8
##  5     5 LG화학 831,0… 59,000 -6.63% 5,000  586,622  70,592           44.9
##  6     6 현대차 237,0… 8,000  -3.27% 5,000  506,394  213,668          31.1
##  7     7 삼성바이오… 750,0… 25,000 -3.23% 2,500  496,238  66,165           10.5
##  8     8 삼성SDI… 674,0… 30,000 -4.26% 5,000  463,473  68,765           44.0
##  9     9 카카오 488,0… 3,500  +0.72% 500    432,749  88,678           34.2
## 10    10 셀트리온… 297,5… 10,500 -3.41% 1,000  401,707  135,028          21.3
## # … with 240 more rows, and 3 more variables: 거래량 <chr>, PER <chr>,
## #   ROE <chr>
…
  ticker_df <- rbind(ticker_df, ticker_df_1)
}

ticker_df <- ticker_df %>% 
  as_tibble() 

ticker_df$종목코드 <- ticker_df$종목코드 %>% as.character()
ticker_df$종목명 <- ticker_df$종목명 %>% as.character()

ticker_df <- ticker_df %>% 
  filter(nchar(종목명) != 0)

ticker_df

## # A tibble: 250 x 2
##    종목명           종목코드
##    <chr>            <chr>   
##  1 삼성전자         005930  
##  2 SK하이닉스       000660  
##  3 NAVER            035420  
##  4 삼성전자우       005935  
##  5 LG화학           051910  
##  6 현대차           005380  
##  7 삼성바이오로직스 207940  
##  8 삼성SDI          006400  
##  9 카카오           035720  
## 10 셀트리온         068270  
## # … with 240 more rows

시가총액과, 종목코드 join

이렇개 생성된 시가총액 데이터와, 종목코드 데이터를 join시켜주자 left_join()함수를 사용했으며 이때 사용한 키값은 종목명으로 해두었다.

df_ticker_info <- df_info %>% 
  left_join(ticker_df) 

df_ticker_info 

## # A tibble: 250 x 13
##        N 종목명 현재가 전일비 등락률 액면가 시가총액 상장주식수 외국인비율
##  * <int> <chr>  <chr>  <chr>  <chr>  <chr>  <chr>    <chr>           <dbl>
##  1     1 삼성전자… 82,500 2,800  -3.28% 100    4,925,0… 5,969,783        54.9
##  2     2 SK하이닉… 141,5… 7,000  -4.71% 5,000  1,030,1… 728,002          50.7
##  3     3 NAVER  375,0… 8,000  -2.09% 100    615,988  164,263          57.3
##  4     4 삼성전자우… 72,800 1,300  -1.75% 100    599,062  822,887          78.8
##  5     5 LG화학 831,0… 59,000 -6.63% 5,000  586,622  70,592           44.9
##  6     6 현대차 237,0… 8,000  -3.27% 5,000  506,394  213,668          31.1
##  7     7 삼성바이오… 750,0… 25,000 -3.23% 2,500  496,238  66,165           10.5
##  8     8 삼성SDI… 674,0… 30,000 -4.26% 5,000  463,473  68,765           44.0
##  9     9 카카오 488,0… 3,500  +0.72% 500    432,749  88,678           34.2
## 10    10 셀트리온… 297,5… 10,500 -3.41% 1,000  401,707  135,028          21.3
## # … with 240 more rows, and 4 more variables: 거래량 <chr>, PER <chr>,
## #   ROE <chr>, 종목코드 <chr>
…
